Tidy data and statistical visualisation to support exploration of temporal data
…
.footnote[.red[*] sourced from [the city of Melbourne](http://www.pedestrian.melbourne.vic.gov.au)]
]
.right-column[

```r
ped_loc <- read_csv("data/Pedestrian_sensor_locations.csv")
ped_loc %>% 
  select(`Sensor ID`, `Sensor Description`, Longitude, Latitude)
```

```
#> # A tibble: 43 × 4
#>    `Sensor ID`            `Sensor Description` Longitude
#>          <int>                           <chr>     <dbl>
#> 1           22 Flinders St-Elizabeth St (East)  144.9651
#> 2           34            Flinders St-Spark La  144.9742
#> 3           11                 Waterfront City  144.9396
#> 4            8                     Webb Bridge  144.9472
#> 5            7                  Birrarung Marr  144.9714
#> 6           13               Flagstaff Station  144.9566
#> 7           15                   State Library  144.9645
#> 8           27               QV Market-Peel St  144.9566
#> 9           12                        New Quay  144.9429
#> 10          24   Spencer St-Collins St (North)  144.9545
#> # ... with 33 more rows, and 1 more variables:
#> #   Latitude <dbl>
```
…
.left-column[
## Melbourne pedestrian data .red[*]
### - sensor info
### - sensor map
### - hourly counts
]
.right-column[

```r
ped_2017 <- read_csv("http://www.pedestrian.melbourne.vic.gov.au/datadownload/March_2017.csv")
ped_2017
```

```
#> # A tibble: 744 × 45
#>          Date  Hour `State Library` `Collins Place (South)`
#>         <chr> <int>           <int>                   <int>
#> 1  01/03/2017     0             140                      36
#> 2  01/03/2017     1              64                      17
#> 3  01/03/2017     2              29                      11
#> 4  01/03/2017     3              13                       9
#> 5  01/03/2017     4              13                      10
#> 6  01/03/2017     5              31                      84
#> 7  01/03/2017     6              92                     252
#> 8  01/03/2017     7             327                     767
#> 9  01/03/2017     8             908                    1997
#> 10 01/03/2017     9             775                    1319
#> # ... with 734 more rows, and 41 more variables: `Collins
#> #   Place (North)` <int>, `Flagstaff Station` <int>,
#> #   `Melbourne Central` <int>, `Town Hall (West)` <int>,
#> #   `Bourke Street Mall (North)` <int>, `Bourke Street Mall
#> #   (South)` <int>, `Australia on Collins` <int>, `Southern
#> #   Cross Station` <int>, `Victoria Point` <int>, `New
#> #   Quay` <int>, `Waterfront City` <int>, `Webb
#> #   Bridge` <int>, `Princes Bridge` <int>, `Flinders St
#> #   Station Underpass` <int>, `Sandridge Bridge` <int>,
…
